Plastics and Corporations
…
## $plastics
## # A tibble: 13,380 x 14
##    country  year parent_company empty  hdpe  ldpe     o   pet    pp    ps   pvc
##    <chr>   <dbl> <chr>          <dbl> <dbl> <dbl> <dbl> <dbl> <dbl> <dbl> <dbl>
##  1 Argent  2019 Grand Total        0   215    55   607  1376   281   116    18
##  2 Argent  2019 Unbranded          0   155    50   532   848   122   114    17
##  3 Argent  2019 The Coca-Cola     0     0     0     0   222    35     0     0
##  4 Argent  2019 Secco              0     0     0     0    39     4     0     0
##  5 Argent  2019 Doble Cola         0     0     0     0    38     0     0     0
##  6 Argent  2019 Pritty             0     0     0     0    22     7     0     0
##  7 Argent  2019 PepsiCo            0     0     0     0    21     6     0     0
##  8 Argent  2019 Casoni             0     0     0     0    26     0     0     0
##  9 Argent  2019 Villa Del Sur     0     0     0     0    19     1     0     0
## 10 Argent  2019 Manaos             0     0     0     0    14     4     0     0
## #  with 13,370 more rows, and 3 more variables: grand_total <dbl>,
## #   num_events <dbl>, volunteers <dbl>
…
