2020-01-05
…
## $transit_cost
## # A tibble: 544 x 20
##        e country city  line  start_year end_year    rr length tunnel_per tunnel
##    <dbl> <chr>   <chr> <chr> <chr>      <chr>    <dbl>  <dbl> <chr>       <dbl>
##  1  7136 CA      Vanc Broa 2020       2025         0    5.7 87.72%        5  
##  2  7137 CA      Toro Vaug 2009       2017         0    8.6 100.00%       8.6
##  3  7138 CA      Toro Scar 2020       2030         0    7.8 100.00%       7.8
##  4  7139 CA      Toro Onta 2020       2030         0   15.5 57.00%        8.8
##  5  7144 CA      Toro Yong 2020       2030         0    7.4 100.00%       7.4
##  6  7145 NL      Amst Nort 2003       2018         0    9.7 73.00%        7.1
##  7  7146 CA      Mont Blue 2020       2026         0    5.8 100.00%       5.8
##  8  7147 US      Seat U-Li 2009       2016         0    5.1 100.00%       5.1
##  9  7152 US      Los  Purp 2020       2027         0    4.2 100.00%       4.2
## 10  7153 US      Los  Purp 2018       2026         0    4.2 100.00%       4.2
## #  with 534 more rows, and 10 more variables: stations <dbl>, source1 <chr>,
## #   cost <dbl>, currency <chr>, year <dbl>, ppp_rate <dbl>, real_cost <chr>,
## #   cost_km_millions <dbl>, source2 <chr>, reference <chr>
…
transit %>%
  group_by(country) %>%
  summarize(mean(real_cost))

## # A tibble: 56 x 2
##    country `mean(real_cost)`
##    <chr>               <dbl>
##  1 AE                  6637.
##  2 AR                  4646 
##  3 AT                  1352 
##  4 AU                  6238.
##  5 BD                 12352.
##  6 BE                  1170 
##  7 BG                  1016.
##  8 BH                  4882.
##  9 BR                  3665 
## 10 CA                  3283.
## #  with 46 more rows
…
